src/testbench.vcd
$date
	Thu Mar 29 14:43:29 2018
$end
$version
	Icarus Verilog
$end
$timescale
	1s
$end
$scope module testbench $end
$var wire 1 ! PCSrc_D $end
$var wire 5 " writeReg_W [4:0] $end
$var wire 5 # writeReg_M [4:0] $end
$var wire 5 $ writeReg_E [4:0] $end
$var wire 32 % writeData_M [31:0] $end
$var wire 32 & v0 [31:0] $end
$var wire 1 ' sysstall $end
$var wire 1 ( syscall_control $end
$var wire 1 ) stat_control $end
$var wire 32 * sp [31:0] $end
$var wire 32 + signImm_E [31:0] $end
$var wire 32 , signImm_D [31:0] $end
$var wire 32 - readData_W [31:0] $end
$var wire 32 . readData_M [31:0] $end
$var wire 32 / ra [31:0] $end
$var wire 32 0 number_instructions [31:0] $end
$var wire 32 1 jumpAddr [31:0] $end
$var wire 1 2 jump $end
$var wire 1 3 jr_control $end
$var wire 32 4 jrMux_out [31:0] $end
$var wire 1 5 jal_control $end
$var wire 32 6 instr_F [31:0] $end
$var wire 32 7 instr_D [31:0] $end
$var wire 32 8 branch_mux_out [31:0] $end
$var wire 32 9 a0 [31:0] $end
$var wire 32 : WriteData_E [31:0] $end
$var wire 2 ; WB_W [1:0] $end
$var wire 2 < WB_M [1:0] $end
$var wire 2 = WB_E [1:0] $end
$var wire 2 > WB_D [1:0] $end
$var wire 1 ? StallF $end
$var wire 1 @ StallD $end
$var wire 32 A SrcBE [31:0] $end
$var wire 32 B SrcAE [31:0] $end
$var wire 5 C Rt_E [4:0] $end
$var wire 5 D Rs_E [4:0] $end
$var wire 32 E Result_W [31:0] $end
$var wire 5 F Rd_E [4:0] $end
$var wire 32 G RD2_E [31:0] $end
$var wire 32 H RD2_D [31:0] $end
$var wire 32 I RD1_E [31:0] $end
$var wire 32 J RD1_D [31:0] $end
$var wire 32 K PC_F [31:0] $end
$var wire 32 L PC_D [31:0] $end
$var wire 32 M PCPlus4_F [31:0] $end
$var wire 32 N PCPlus4_D [31:0] $end
$var wire 32 O PCBranch_D [31:0] $end
$var wire 32 P Next_PC [31:0] $end
$var wire 2 Q MEM_M [1:0] $end
$var wire 2 R MEM_E [1:0] $end
$var wire 2 S MEM_D [1:0] $end
$var wire 2 T ForwardBE [1:0] $end
$var wire 1 U ForwardBD $end
$var wire 2 V ForwardAE [1:0] $end
$var wire 1 W ForwardAD $end
$var wire 1 X FlushE $end
$var wire 1 Y EqualD $end
$var wire 7 Z EX_E [6:0] $end
$var wire 7 [ EX_D [6:0] $end
$var wire 3 \ BranchOp [2:0] $end
$var wire 1 ] BranchD $end
$var wire 32 ^ And_Input2 [31:0] $end
$var wire 32 _ And_Input1 [31:0] $end
$var wire 32 ` ALUOut_W [31:0] $end
$var wire 32 a ALUOut_M [31:0] $end
$var wire 32 b ALUOut_E [31:0] $end
$var reg 1 c clk $end
$scope module ALU_block $end
$var wire 5 d ALUop [4:0] $end
$var wire 32 e reg2 [31:0] $end
$var wire 32 f reg1 [31:0] $end
$var reg 32 g ALUresult [31:0] $end
$var reg 32 h hi [31:0] $end
$var reg 32 i lo [31:0] $end
$upscope $end
$scope module ExMem $end
$var wire 32 j ALUOut_E [31:0] $end
$var wire 1 k FlushE $end
$var wire 1 c clk $end
$var wire 5 l WriteReg_E [4:0] $end
$var wire 32 m WriteData_E [31:0] $end
$var wire 2 n WB_E [1:0] $end
$var wire 2 o MEM_E [1:0] $end
$var reg 32 p ALUOut_M [31:0] $end
$var reg 2 q MEM_M [1:0] $end
$var reg 2 r WB_M [1:0] $end
$var reg 32 s WriteData_M [31:0] $end
$var reg 5 t WriteReg_M [4:0] $end
$upscope $end
$scope module IdEx $end
$var wire 5 u Rd_D [4:0] $end
$var wire 5 v Rs_D [4:0] $end
$var wire 5 w Rt_D [4:0] $end
$var wire 1 c clk $end
$var wire 1 2 jump $end
$var wire 2 x WB_D [1:0] $end
$var wire 32 y SignImm_D [31:0] $end
$var wire 32 z RD2_D [31:0] $end
$var wire 32 { RD1_D [31:0] $end
$var wire 2 | MEM_D [1:0] $end
$var wire 1 X FlushE $end
$var wire 7 } EX_D [6:0] $end
$var reg 7 ~ EX_E [6:0] $end
$var reg 2 !" MEM_E [1:0] $end
$var reg 32 "" RD1_E [31:0] $end
$var reg 32 #" RD2_E [31:0] $end
$var reg 5 $" Rd_E [4:0] $end
$var reg 5 %" Rs_E [4:0] $end
$var reg 5 &" Rt_E [4:0] $end
$var reg 32 '" SignImm_E [31:0] $end
$var reg 2 (" WB_E [1:0] $end
$upscope $end
$scope module IfId $end
$var wire 1 ! PCSrcD $end
$var wire 1 c clk $end
$var wire 1 @ StallD $end
$var wire 32 )" PC_Plus4_F [31:0] $end
$var wire 32 *" PC_F [31:0] $end
$var wire 32 +" Instr_F [31:0] $end
$var reg 32 ," Instr_D [31:0] $end
$var reg 32 -" PC_D [31:0] $end
$var reg 32 ." PC_Plus4_D [31:0] $end
$upscope $end
$scope module JumpAddr_block $end
$var wire 32 /" PCplus4 [31:0] $end
$var wire 32 0" instr [31:0] $end
$var wire 32 1" jumpAddr [31:0] $end
$upscope $end
$scope module MemWb $end
$var wire 32 2" ALUOut_M [31:0] $end
$var wire 2 3" WB_M [1:0] $end
$var wire 5 4" WriteReg_M [4:0] $end
$var wire 1 c clk $end
$var wire 32 5" ReadData_M [31:0] $end
$var reg 32 6" ALUOut_W [31:0] $end
$var reg 32 7" ReadData_W [31:0] $end
$var reg 2 8" WB_W [1:0] $end
$var reg 5 9" WriteReg_W [4:0] $end
$upscope $end
$scope module MuxRD1 $end
$var wire 32 :" mux_in_1 [31:0] $end
$var wire 1 W select $end
$var wire 32 ;" mux_in_0 [31:0] $end
$var reg 32 <" mux_out [31:0] $end
$upscope $end
$scope module MuxRD2 $end
$var wire 32 =" mux_in_1 [31:0] $end
$var wire 1 U select $end
$var wire 32 >" mux_in_0 [31:0] $end
$var reg 32 ?" mux_out [31:0] $end
$upscope $end
$scope module PC_block $end
$var wire 1 c clk $end
$var wire 32 @" nextPC [31:0] $end
$var wire 1 ? StallF $end
$var reg 32 A" currPC [31:0] $end
$upscope $end
$scope module PCadd4 $end
$var wire 32 B" currPC [31:0] $end
$var wire 32 C" PCplus4 [31:0] $end
$upscope $end
$scope module aluMux $end
$var wire 32 D" mux_in_1 [31:0] $end
$var wire 1 E" select $end
$var wire 32 F" mux_in_0 [31:0] $end
$var reg 32 G" mux_out [31:0] $end
$upscope $end
$scope module aluSrcAMux $end
$var wire 32 H" mux_in_0 [31:0] $end
$var wire 32 I" mux_in_2 [31:0] $end
$var wire 2 J" select [1:0] $end
$var wire 32 K" mux_in_1 [31:0] $end
$var reg 32 L" mux_out [31:0] $end
$upscope $end
$scope module aluSrcBMux $end
$var wire 32 M" mux_in_0 [31:0] $end
$var wire 32 N" mux_in_2 [31:0] $end
$var wire 2 O" select [1:0] $end
$var wire 32 P" mux_in_1 [31:0] $end
$var reg 32 Q" mux_out [31:0] $end
$upscope $end
$scope module branchAdder $end
$var wire 32 R" PC_Plus4 [31:0] $end
$var wire 32 S" signExtendedImmediate [31:0] $end
$var reg 32 T" out [31:0] $end
$upscope $end
$scope module branchAnd $end
$var wire 1 Y zero $end
$var wire 1 ] branch $end
$var reg 1 U" and_out $end
$upscope $end
$scope module branchControl $end
$var wire 32 V" input1 [31:0] $end
$var wire 32 W" input2 [31:0] $end
$var wire 3 X" BranchOp [2:0] $end
$var reg 1 Y equalD $end
$upscope $end
$scope module branchMux $end
$var wire 32 Y" mux_in_0 [31:0] $end
$var wire 32 Z" mux_in_1 [31:0] $end
$var wire 1 ! select $end
$var reg 32 [" mux_out [31:0] $end
$upscope $end
$scope module control_block $end
$var wire 32 \" instr [31:0] $end
$var reg 5 ]" ALUop [4:0] $end
$var reg 1 ^" ALUsrc $end
$var reg 1 ] Branch $end
$var reg 3 _" BranchOp [2:0] $end
$var reg 7 `" EX_D [6:0] $end
$var reg 1 2 Jump $end
$var reg 2 a" MEM_D [1:0] $end
$var reg 1 b" MemRead $end
$var reg 1 c" MemToReg $end
$var reg 1 d" MemWrite $end
$var reg 1 e" RegDst $end
$var reg 1 f" RegWrite $end
$var reg 2 g" WB_D [1:0] $end
$var reg 1 5 jal_control $end
$var reg 1 3 jr_control $end
$var reg 1 ( syscall_control $end
$upscope $end
$scope module dataMem $end
$var wire 32 h" address [31:0] $end
$var wire 1 c clk $end
$var wire 1 i" memRead $end
$var wire 1 j" memWrite $end
$var wire 32 k" writeData [31:0] $end
$var reg 32 l" readData [31:0] $end
$upscope $end
$scope module hazard $end
$var wire 1 m" MemReadE $end
$var wire 1 n" MemReadM $end
$var wire 1 o" MemtoRegE $end
$var wire 1 p" MemtoRegM $end
$var wire 1 ! PCSrc_D $end
$var wire 1 q" RegWriteE $end
$var wire 1 r" RegWriteM $end
$var wire 1 s" RegWriteW $end
$var wire 5 t" RsD [4:0] $end
$var wire 5 u" RsE [4:0] $end
$var wire 5 v" RtD [4:0] $end
$var wire 5 w" RtE [4:0] $end
$var wire 5 x" WriteRegM [4:0] $end
$var wire 5 y" WriteRegW [4:0] $end
$var wire 1 z" jump $end
$var wire 1 ( sycall_control $end
$var wire 5 {" WriteRegE [4:0] $end
$var reg 1 X FlushE $end
$var reg 1 W ForwardAD $end
$var reg 2 |" ForwardAE [1:0] $end
$var reg 1 U ForwardBD $end
$var reg 2 }" ForwardBE [1:0] $end
$var reg 1 @ StallD $end
$var reg 1 ? StallF $end
$var reg 1 ~" branchstall $end
$var reg 1 !# lwstall $end
$var reg 1 ' sysstall $end
$upscope $end
$scope module instructionMemory $end
$var wire 32 "# currPC [31:0] $end
$var reg 32 ## instr [31:0] $end
$var reg 32 $# number_instructions [31:0] $end
$upscope $end
$scope module jrMux $end
$var wire 32 %# mux_in_0 [31:0] $end
$var wire 1 3 select $end
$var wire 32 &# mux_in_1 [31:0] $end
$var reg 32 '# mux_out [31:0] $end
$upscope $end
$scope module jumpMux $end
$var wire 32 (# mux_in_0 [31:0] $end
$var wire 32 )# mux_in_1 [31:0] $end
$var wire 1 2 select $end
$var reg 32 *# mux_out [31:0] $end
$upscope $end
$scope module memToRegMux $end
$var wire 32 +# mux_in_0 [31:0] $end
$var wire 32 ,# mux_in_1 [31:0] $end
$var wire 1 -# select $end
$var reg 32 .# mux_out [31:0] $end
$upscope $end
$scope module reg_block $end
$var wire 1 /# RegWrite_D $end
$var wire 1 0# RegWrite_W $end
$var wire 32 1# a0 [31:0] $end
$var wire 1 c clk $end
$var wire 32 2# jal_address [31:0] $end
$var wire 1 5 jal_control $end
$var wire 32 3# ra [31:0] $end
$var wire 5 4# readReg1 [4:0] $end
$var wire 5 5# readReg2 [4:0] $end
$var wire 32 6# sp [31:0] $end
$var wire 32 7# v0 [31:0] $end
$var wire 32 8# writeData [31:0] $end
$var wire 5 9# writeReg [4:0] $end
$var reg 32 :# readData1 [31:0] $end
$var reg 32 ;# readData2 [31:0] $end
$var integer 32 <# i [31:0] $end
$upscope $end
$scope module registerMux $end
$var wire 5 =# mux_in_0 [4:0] $end
$var wire 5 ># mux_in_1 [4:0] $end
$var wire 1 ?# select $end
$var reg 5 @# mux_out [4:0] $end
$upscope $end
$scope module runStats $end
$var wire 1 c clk $end
$var wire 32 A# number_instructions [31:0] $end
$var wire 1 ) stat_control $end
$var reg 32 B# number_cycles [31:0] $end
$upscope $end
$scope module signExtend_block $end
$var wire 32 C# instr [31:0] $end
$var reg 32 D# out_value [31:0] $end
$upscope $end
$scope module testSyscall $end
$var wire 32 E# a0 [31:0] $end
$var wire 1 ( syscall_control $end
$var wire 1 ' sysstall $end
$var wire 32 F# v0 [31:0] $end
$var reg 1 ) stat_control $end
$upscope $end
$upscope $end
$enddefinitions $end
#0
$dumpvars
b0 F#
b0 E#
b111111111111111 D#
b111100000111010111111111111111 C#
b1 B#
b1 A#
bx @#
0?#
bx >#
bx =#
b100000 <#
bx ;#
bx :#
bx 9#
bx 8#
b0 7#
b0 6#
b11101 5#
b0 4#
b0 3#
b10000000000000000111000 2#
b0 1#
x0#
1/#
bx .#
x-#
bx ,#
bx +#
b10000000000000000110100 *#
b11101011111111111111100 )#
b10000000000000000110100 (#
b11101011111111111111100 '#
b0 &#
b11101011111111111111100 %#
b1 $#
b111100000111010111111111111111 ##
b10000000000000000110000 "#
0!#
0~"
b0 }"
b0 |"
bx {"
zz"
bx y"
bx x"
bx w"
b11101 v"
bx u"
b0 t"
xs"
xr"
0q"
xp"
0o"
xn"
0m"
bx l"
bx k"
xj"
xi"
bx h"
b10 g"
1f"
0e"
0d"
0c"
0b"
b0 a"
b100011 `"
b0 _"
1^"
b11 ]"
b111100000111010111111111111111 \"
b10000000000000000110100 ["
b10000100000000000110000 Z"
b10000000000000000110100 Y"
b0 X"
bx W"
bx V"
0U"
b10000100000000000110000 T"
b111111111111111 S"
b10000000000000000110100 R"
bx Q"
bx P"
b0 O"
bx N"
bx M"
bx L"
bx K"
b0 J"
bx I"
bx H"
bx G"
bx F"
0E"
bx D"
b10000000000000000110100 C"
b10000000000000000110000 B"
b10000000000000000110000 A"
b10000000000000000110100 @"
bx ?"
bx >"
bx ="
bx <"
bx ;"
bx :"
bx 9"
bx 8"
bx 7"
bx 6"
bx 5"
bx 4"
bx 3"
bx 2"
b11101011111111111111100 1"
b111100000111010111111111111111 0"
b10000000000000000110100 /"
b10000000000000000110100 ."
b10000000000000000110000 -"
b111100000111010111111111111111 ,"
b111100000111010111111111111111 +"
b10000000000000000110000 *"
b10000000000000000110100 )"
b0 ("
bx '"
bx &"
bx %"
bx $"
bx #"
bx ""
b0 !"
b0 ~
b100011 }
b0 |
bx {
bx z
b111111111111111 y
b10 x
b11101 w
b0 v
b1111 u
bx t
bx s
bx r
bx q
bx p
b0 o
b0 n
bx m
bx l
zk
bx j
b0 i
b0 h
bx g
bx f
bx e
b0 d
1c
bx b
bx a
bx `
bx _
bx ^
0]
b0 \
b100011 [
b0 Z
0Y
0X
0W
b0 V
xU
b0 T
b0 S
b0 R
bx Q
b10000000000000000110100 P
b10000100000000000110000 O
b10000000000000000110100 N
b10000000000000000110100 M
b10000000000000000110000 L
b10000000000000000110000 K
bx J
bx I
bx H
bx G
bx F
bx E
bx D
bx C
bx B
bx A
0@
0?
b10 >
b0 =
bx <
bx ;
bx :
b0 9
b10000000000000000110100 8
b111100000111010111111111111111 7
b111100000111010111111111111111 6
05
b11101011111111111111100 4
03
02
b11101011111111111111100 1
b1 0
b0 /
bx .
bx -
b111111111111111 ,
bx +
b0 *
0)
0(
0'
b0 &
bx %
bx $
bx #
bx "
0!
$end
#10
b0 _
b0 <"
b0 V"
b0 H
b0 z
b0 >"
b0 ;#
b0 J
b0 {
b0 ;"
b0 :#
0c
#20
b0 ^
b0 ?"
b0 W"
0U
b1111111111111110000000000000000 b
b1111111111111110000000000000000 g
b1111111111111110000000000000000 j
b10000000000000000111000 P
b10000000000000000111000 @"
b10000000000000000111000 *#
0r"
0p"
0i"
0j"
0n"
b111111111111111 A
b111111111111111 e
b111111111111111 G"
b0 :
b0 m
b0 F"
b0 Q"
b0 B
b0 f
b0 L"
b11101 $
b11101 l
b11101 {"
b11101 @#
1q"
b11 d
1E"
b10000000000000000111000 8
b10000000000000000111000 ["
b10000000000000000111000 (#
b10 0
b10 $#
b10 A#
b1100000100000000000000111101 6
b1100000100000000000000111101 +"
b1100000100000000000000111101 ##
b0 <
b0 r
b0 3"
b0 Q
b0 q
b111111111111111 +
b111111111111111 '"
b111111111111111 D"
b0 G
b0 #"
b0 M"
b0 I
b0 ""
b0 H"
b1111 F
b1111 $"
b1111 >#
b11101 C
b11101 &"
b11101 w"
b11101 =#
b0 D
b0 %"
b0 u"
b10 =
b10 n
b10 ("
b100011 Z
b100011 ~
b10000000000000000111000 M
b10000000000000000111000 )"
b10000000000000000111000 C"
b10000000000000000111000 Y"
b10000000000000000110100 K
b10000000000000000110100 *"
b10000000000000000110100 A"
b10000000000000000110100 B"
b10000000000000000110100 "#
b10 B#
1c
#30
0c
#40
b10000000000000011110100 4
b10000000000000011110100 '#
b10000000000000011110100 )#
b10000000000000011110100 1
b10000000000000011110100 1"
b10000000000000011110100 %#
b10000000000000011110100 P
b10000000000000011110100 @"
b10000000000000011110100 *#
b1111111111111110000000000000000 :
b1111111111111110000000000000000 m
b1111111111111110000000000000000 F"
b1111111111111110000000000000000 Q"
b0 ^
b0 ?"
b0 W"
b10000000000000000111100 8
b10000000000000000111100 ["
b10000000000000000111100 (#
b11 0
b11 $#
b11 A#
b110111101111011111111111111100 6
b110111101111011111111111111100 +"
b110111101111011111111111111100 ##
b10000000000000100101100 O
b10000000000000100101100 T"
b10000000000000100101100 Z"
b0 [
b0 }
b0 `"
15
12
0^"
1f"
b0 ]"
b111101 ,
b111101 y
b111101 S"
b111101 D#
b0 u
b10000 w
b10000 5#
b10000 v"
b10 T
b10 O"
b10 }"
0U
1r"
0-#
00#
0s"
b10000000000000000111100 M
b10000000000000000111100 )"
b10000000000000000111100 C"
b10000000000000000111100 Y"
b10000000000000000111000 K
b10000000000000000111000 *"
b10000000000000000111000 A"
b10000000000000000111000 B"
b10000000000000000111000 "#
b10000000000000000111000 N
b10000000000000000111000 ."
b10000000000000000111000 /"
b10000000000000000111000 R"
b1100000100000000000000111101 7
b1100000100000000000000111101 ,"
b1100000100000000000000111101 0"
b1100000100000000000000111101 \"
b1100000100000000000000111101 C#
b10000000000000000111100 2#
b10000000000000000110100 L
b10000000000000000110100 -"
b11101 #
b11101 t
b11101 4"
b11101 x"
b0 %
b0 s
b0 k"
b1111111111111110000000000000000 a
b1111111111111110000000000000000 p
b1111111111111110000000000000000 2"
b1111111111111110000000000000000 :"
b1111111111111110000000000000000 ="
b1111111111111110000000000000000 I"
b1111111111111110000000000000000 N"
b1111111111111110000000000000000 h"
b10 <
b10 r
b10 3"
b0 ;
b0 8"
b11 B#
1c
#41
b10000000000000000111100 /
b10000000000000000111100 &#
b10000000000000000111100 3#
#50
0c
#60
b10111101111111111111110000 4
b10111101111111111111110000 '#
b10111101111111111111110000 )#
b0 :
b0 m
b0 F"
b0 Q"
b1111111111111110000000000000000 ^
b1111111111111110000000000000000 ?"
b1111111111111110000000000000000 W"
b1111111111111110000000000000000 _
b1111111111111110000000000000000 <"
b1111111111111110000000000000000 V"
b0 b
b0 g
b0 j
b10111101111111111111110000 1
b10111101111111111111110000 1"
b10111101111111111111110000 %#
b10000000000000011111000 P
b10000000000000011111000 @"
b10000000000000011111000 *#
b1111111111111110000000000000000 E
b1111111111111110000000000000000 K"
b1111111111111110000000000000000 P"
b1111111111111110000000000000000 .#
b1111111111111110000000000000000 8#
10#
1s"
b0 A
b0 e
b0 G"
b0 T
b0 O"
b0 }"
1U
1W
b0 $
b0 l
b0 {"
b0 @#
0q"
b0 d
0E"
b10001000000000000101100 O
b10001000000000000101100 T"
b10001000000000000101100 Z"
b1111111111111100 ,
b1111111111111100 y
b1111111111111100 S"
b1111111111111100 D#
b100001 [
b100001 }
b100001 `"
1^"
b1 ]"
05
1f"
02
b11111 u
b11101 w
b11101 v
b11101 5#
b11101 4#
b11101 v"
b11101 t"
b10000000000000011111000 8
b10000000000000011111000 ["
b10000000000000011111000 (#
b100 0
b100 $#
b100 A#
b100111101111011111111101100000 6
b100111101111011111111101100000 +"
b100111101111011111111101100000 ##
b11101 "
b11101 9"
b11101 y"
b11101 9#
b1111111111111110000000000000000 `
b1111111111111110000000000000000 6"
b1111111111111110000000000000000 +#
b10 ;
b10 8"
b1111111111111110000000000000000 %
b1111111111111110000000000000000 s
b1111111111111110000000000000000 k"
b0 +
b0 '"
b0 D"
b0 F
b0 $"
b0 >#
b0 C
b0 &"
b0 w"
b0 =#
b0 =
b0 n
b0 ("
b0 Z
b0 ~
b10000000000000000111100 N
b10000000000000000111100 ."
b10000000000000000111100 /"
b10000000000000000111100 R"
b110111101111011111111111111100 7
b110111101111011111111111111100 ,"
b110111101111011111111111111100 0"
b110111101111011111111111111100 \"
b110111101111011111111111111100 C#
b10000000000000001000000 2#
b10000000000000000111000 L
b10000000000000000111000 -"
b10000000000000011111000 M
b10000000000000011111000 )"
b10000000000000011111000 C"
b10000000000000011111000 Y"
b10000000000000011110100 K
b10000000000000011110100 *"
b10000000000000011110100 A"
b10000000000000011110100 B"
b10000000000000011110100 "#
b100 B#
1c
#61
b1111111111111110000000000000000 *
b1111111111111110000000000000000 6#
#70
b1111111111111110000000000000000 H
b1111111111111110000000000000000 z
b1111111111111110000000000000000 >"
b1111111111111110000000000000000 ;#
b1111111111111110000000000000000 J
b1111111111111110000000000000000 {
b1111111111111110000000000000000 ;"
b1111111111111110000000000000000 :#
0c
#80
b10111101111111110110000000 4
b10111101111111110110000000 '#
b10111101111111110110000000 )#
b10000000000000011111100 P
b10000000000000011111100 @"
b10000000000000011111100 *#
b10111101111111110110000000 1
b10111101111111110110000000 1"
b10111101111111110110000000 %#
b1111111111111111111111111111100 b
b1111111111111111111111111111100 g
b1111111111111111111111111111100 j
b10000000000000011111100 8
b10000000000000011111100 ["
b10000000000000011111100 (#
b101 0
b101 $#
b101 A#
b10101111101111110000000010011100 6
b10101111101111110000000010011100 +"
b10101111101111110000000010011100 ##
b1111111111111001111000 O
b1111111111111001111000 T"
b1111111111111001111000 Z"
b100010 [
b100010 }
b100010 `"
1^"
1f"
b10 ]"
b11111111111111111111111101100000 ,
b11111111111111111111111101100000 y
b11111111111111111111111101100000 S"
b11111111111111111111111101100000 D#
b1111111111111100 A
b1111111111111100 e
b1111111111111100 G"
b11101 $
b11101 l
b11101 {"
b11101 @#
1q"
b1 d
1E"
b1 T
b1 O"
b1 }"
b1 V
b1 J"
b1 |"
0U
0W
b1111111111111110000000000000000 _
b1111111111111110000000000000000 <"
b1111111111111110000000000000000 V"
b1111111111111110000000000000000 ^
b1111111111111110000000000000000 ?"
b1111111111111110000000000000000 W"
b1111111111111110000000000000000 B
b1111111111111110000000000000000 f
b1111111111111110000000000000000 L"
b1111111111111110000000000000000 :
b1111111111111110000000000000000 m
b1111111111111110000000000000000 F"
b1111111111111110000000000000000 Q"
0r"
b10000000000000011111100 M
b10000000000000011111100 )"
b10000000000000011111100 C"
b10000000000000011111100 Y"
b10000000000000011111000 K
b10000000000000011111000 *"
b10000000000000011111000 A"
b10000000000000011111000 B"
b10000000000000011111000 "#
b10000000000000011111000 N
b10000000000000011111000 ."
b10000000000000011111000 /"
b10000000000000011111000 R"
b100111101111011111111101100000 7
b100111101111011111111101100000 ,"
b100111101111011111111101100000 0"
b100111101111011111111101100000 \"
b100111101111011111111101100000 C#
b10000000000000011111100 2#
b10000000000000011110100 L
b10000000000000011110100 -"
b1111111111111100 +
b1111111111111100 '"
b1111111111111100 D"
b1111111111111110000000000000000 G
b1111111111111110000000000000000 #"
b1111111111111110000000000000000 M"
b1111111111111110000000000000000 I
b1111111111111110000000000000000 ""
b1111111111111110000000000000000 H"
b11111 F
b11111 $"
b11111 >#
b11101 C
b11101 &"
b11101 w"
b11101 =#
b11101 D
b11101 %"
b11101 u"
b10 =
b10 n
b10 ("
b100001 Z
b100001 ~
b0 #
b0 t
b0 4"
b0 x"
b0 %
b0 s
b0 k"
b0 a
b0 p
b0 2"
b0 :"
b0 ="
b0 I"
b0 N"
b0 h"
b0 <
b0 r
b0 3"
b101 B#
1c
#90
0c
#100
b10111111000000001001110000 4
b10111111000000001001110000 '#
b10111111000000001001110000 )#
b1111111111111111111111111111100 :
b1111111111111111111111111111100 m
b1111111111111111111111111111100 F"
b1111111111111111111111111111100 Q"
b1111111111111111111111111111100 B
b1111111111111111111111111111100 f
b1111111111111111111111111111100 L"
b1111111111111111111111111111100 _
b1111111111111111111111111111100 <"
b1111111111111111111111111111100 V"
b1111111111111111111111101011100 b
b1111111111111111111111101011100 g
b1111111111111111111111101011100 j
b10111111000000001001110000 1
b10111111000000001001110000 1"
b10111111000000001001110000 %#
0/#
b10000000000000100000000 P
b10000000000000100000000 @"
b10000000000000100000000 *#
b0 E
b0 K"
b0 P"
b0 .#
b0 8#
00#
0s"
b10 T
b10 O"
b10 }"
b10 V
b10 J"
b10 |"
1W
1r"
b11111111111111111111111101100000 A
b11111111111111111111111101100000 e
b11111111111111111111111101100000 G"
b10 d
b10000000000001101101100 O
b10000000000001101101100 T"
b10000000000001101101100 Z"
b10011100 ,
b10011100 y
b10011100 S"
b10011100 D#
b0 >
b0 x
b0 g"
b10 S
b10 |
b10 a"
1d"
1^"
0f"
b10 ]"
b0 u
b11111 w
b11111 5#
b11111 v"
b10000000000000100000000 8
b10000000000000100000000 ["
b10000000000000100000000 (#
b110 0
b110 $#
b110 A#
b10101111101111100000000010011000 6
b10101111101111100000000010011000 +"
b10101111101111100000000010011000 ##
b0 "
b0 9"
b0 y"
b0 9#
b0 `
b0 6"
b0 +#
b0 ;
b0 8"
b11101 #
b11101 t
b11101 4"
b11101 x"
b1111111111111110000000000000000 %
b1111111111111110000000000000000 s
b1111111111111110000000000000000 k"
b1111111111111111111111111111100 a
b1111111111111111111111111111100 p
b1111111111111111111111111111100 2"
b1111111111111111111111111111100 :"
b1111111111111111111111111111100 ="
b1111111111111111111111111111100 I"
b1111111111111111111111111111100 N"
b1111111111111111111111111111100 h"
b10 <
b10 r
b10 3"
b11111111111111111111111101100000 +
b11111111111111111111111101100000 '"
b11111111111111111111111101100000 D"
b100010 Z
b100010 ~
b10000000000000011111100 N
b10000000000000011111100 ."
b10000000000000011111100 /"
b10000000000000011111100 R"
b10101111101111110000000010011100 7
b10101111101111110000000010011100 ,"
b10101111101111110000000010011100 0"
b10101111101111110000000010011100 \"
b10101111101111110000000010011100 C#
b10000000000000100000000 2#
b10000000000000011111000 L
b10000000000000011111000 -"
b10000000000000100000000 M
b10000000000000100000000 )"
b10000000000000100000000 C"
b10000000000000100000000 Y"
b10000000000000011111100 K
b10000000000000011111100 *"
b10000000000000011111100 A"
b10000000000000011111100 B"
b10000000000000011111100 "#
b110 B#
1c
#110
b10000000000000000111100 ^
b10000000000000000111100 ?"
b10000000000000000111100 W"
b10000000000000000111100 H
b10000000000000000111100 z
b10000000000000000111100 >"
b10000000000000000111100 ;#
0c
#120
b10111110000000001001100000 4
b10111110000000001001100000 '#
b10111110000000001001100000 )#
b10000000000000100000100 P
b10000000000000100000100 @"
b10000000000000100000100 *#
b10111110000000001001100000 1
b10111110000000001001100000 1"
b10111110000000001001100000 %#
b1111111111111111111111111111000 b
b1111111111111111111111111111000 g
b1111111111111111111111111111000 j
b10000000000000100000100 8
b10000000000000100000100 ["
b10000000000000100000100 (#
b111 0
b111 $#
b111 A#
b11101000001111000000100001 6
b11101000001111000000100001 +"
b11101000001111000000100001 ##
b10000000000001101100000 O
b10000000000001101100000 T"
b10000000000001101100000 Z"
1d"
1^"
b10 ]"
b10011000 ,
b10011000 y
b10011000 S"
b10011000 D#
b11110 w
b11110 5#
b11110 v"
b10011100 A
b10011100 e
b10011100 G"
b11111 $
b11111 l
b11111 {"
b11111 @#
0q"
b1111111111111111111111101011100 _
b1111111111111111111111101011100 <"
b1111111111111111111111101011100 V"
b1111111111111111111111101011100 B
b1111111111111111111111101011100 f
b1111111111111111111111101011100 L"
b10000000000000000111100 :
b10000000000000000111100 m
b10000000000000000111100 F"
b10000000000000000111100 Q"
b0 T
b0 O"
b0 }"
b1111111111111111111111111111100 E
b1111111111111111111111111111100 K"
b1111111111111111111111111111100 P"
b1111111111111111111111111111100 .#
b1111111111111111111111111111100 8#
10#
1s"
b10000000000000100000100 M
b10000000000000100000100 )"
b10000000000000100000100 C"
b10000000000000100000100 Y"
b10000000000000100000000 K
b10000000000000100000000 *"
b10000000000000100000000 A"
b10000000000000100000000 B"
b10000000000000100000000 "#
b10000000000000100000000 N
b10000000000000100000000 ."
b10000000000000100000000 /"
b10000000000000100000000 R"
b10101111101111100000000010011000 7
b10101111101111100000000010011000 ,"
b10101111101111100000000010011000 0"
b10101111101111100000000010011000 \"
b10101111101111100000000010011000 C#
b10000000000000100000100 2#
b10000000000000011111100 L
b10000000000000011111100 -"
b10011100 +
b10011100 '"
b10011100 D"
b10000000000000000111100 G
b10000000000000000111100 #"
b10000000000000000111100 M"
b0 F
b0 $"
b0 >#
b11111 C
b11111 &"
b11111 w"
b11111 =#
b0 =
b0 n
b0 ("
b10 R
b10 o
b10 !"
b1111111111111111111111111111100 %
b1111111111111111111111111111100 s
b1111111111111111111111111111100 k"
b1111111111111111111111101011100 a
b1111111111111111111111101011100 p
b1111111111111111111111101011100 2"
b1111111111111111111111101011100 :"
b1111111111111111111111101011100 ="
b1111111111111111111111101011100 I"
b1111111111111111111111101011100 N"
b1111111111111111111111101011100 h"
b11101 "
b11101 9"
b11101 y"
b11101 9#
b1111111111111111111111111111100 `
b1111111111111111111111111111100 6"
b1111111111111111111111111111100 +#
b10 ;
b10 8"
b111 B#
1c
#121
b1111111111111111111111111111100 *
b1111111111111111111111111111100 6#
#130
b0 ^
b0 ?"
b0 W"
b0 H
b0 z
b0 >"
b0 ;#
b1111111111111111111111111111100 J
b1111111111111111111111111111100 {
b1111111111111111111111111111100 ;"
b1111111111111111111111111111100 :#
0c
